 275175
 296064
 287567
 286954
 278396
 276322
 276463
 276218
 274903
 275676
 276169
 293612
 276156
 281138
 283335
 285948
 286707
 273120
 273430
 283839
 278353
 295454
 293606
 274826
 272902
 280138
 290569
 274714
 276019
 276195
 288529
 280719
 272831
 276982
 278361
 287567
 286954
 278396
 276322
 276463
 277049
 275529
 274745
 276499
 288594
 289152
 303600
 287567
 286954
 278396
 276322
 276463
 276705
 276169
 293612
 276156
 281304
 288545
 303323
 276544
 287567
 286954
 278396
 276322
 276463
 276603
 273718
 272485
 276587
 285968
 276587
 286076
 288898
 272925
 278308
 276322
 276463
 276517
 278359
 295680
 288915
 278308
 276322
 276463
 276318
 276986
 276258
 287567
 286954
 278396
 276322
 276463
 276323
 274826
 278821
 278751
 295417
 298023
 276463
 276323
 275869
 275069
 278509
 279288
 287567
 286954
 278396
 276322
 276463
 276323
 275959
 290637
 276322
 276463
 276574
 292332
 292746
 276575
 292354
 278627
 279425
 278386
 283862
 275928
 276194
 285777
 303040
 305111
 278844
 276512
 289232
 278308
 276322
 276463
 276603
 278493
 285434
 285763
 276067
 280139
 278353
 294738
 274736
 278994
 288055
 286464
 274536
 276369
 277815
 277175
 285850
 276226
 278414
 287567
 286954
 278274
 276369
 278450
 277394
 277042
 305420
 293982
 288055
 286055
 278744
 274777
 276463
 276520
 278906
 276201
 287567
 286954
 278396
 276322
 276463
 276603
 276156
 280364
 276350
 298153
 282279
 288529
 281105
 287144
 278737
 287394
 295276
 292405
 282197
 278074
 274850
 274978
 288301
 275348
 276968
 278004
 276322
 276463
 277178
 277643
 277345
 276565
 276542
 290696
 294654
 287394
 276968
 278008
 278520
 286832
 275627
 275932
 276584
 292768
 277028
 285417
 277125
 285477
 300943
 289791
 276321
 278408
 286034
 297745
 287534
 275922
 287402
 298050
 286496
 295368
 297677
 284267
 287608
 275963
 277598
 275271
 278893
 278815
 276322
 276463
 277049
 275524
 274353
 276173
 276968
 278004
 276322
 276463
 276327
 280134
 278625
 279183
 276517
 278359
 276322
 276463
 277240
 304775
 301559
 279064
 277598
 275271
 278893
 278847
 287608
 278308
 276322
 276463
 276355
 281589
 282552
 276322
 276463
 276218
 274903
 275382
 284344
 286015
 284344
 285896
 278501
 276457
 274826
 276797
 287567
 286954
 278396
 276322
 276463
 277230
 287567
 286954
 278396
 276322
 276463
 277024
 309004
 287537
 274764
 276372
 282341
 276587
 286018
 276322
 276463
 276250
 276369
 287611
 283335
 285948
 286717
 276322
 276463
 276762
 278939
 298050
 286023
 278868
 278485
 276322
 276463
 277244
 310546
 320456
 287567
 286954
 278396
 276322
 276463
 277240
 300902
 274451
 274188
 272090
 274298
 287567
 286954
 278396
 276322
 276463
 277230
 287567
 286954
 278396
 276322
 276463
 277230
 287567
 286954
 278396
 276322
 276463
 276218
 274764
 276372
 282342
 276322
 276463
 276246
 276260
 286841
 302318
 276322
 276463
 276909
 278941
 303304
 272925
 278308
 276322
 276463
 276318
 276990
 279082
 311828
 288549
 287567
 286954
 278396
 276304
 272134
 274764
 276372
 282342
 276322
 276463
 276860
 275145
 274657
 276295
 295420
 279332
 276217
 276322
 276463
 276297
 278625
 279158
 276322
 276463
 276860
 275043
 295136
 282300
 278967
 278941
 303321
 278308
 276322
 276463
 276318
 276986
 276596
 293354
 289533
 289421
 278284
 276996
 279288
 287567
 286954
 278396
 276322
 276463
 276813
 295774
 278941
 303308
 273840
 275082
 278602
 287567
 286954
 278396
 276322
 276463
 277099
 278782
 277338
 294385
 295368
 298168
 276500
 295724
 289421
 278284
 276986
 278782
 277192
 274903
 275217
 276260
 286841
 302318
 276322
 276463
 276372
 276295
 295420
 279332
 276209
 275897
 276322
 276463
 277230
 287567
 286954
 278396
 276322
 276463
 276724
 277220
 276173
 277010
 272456
 273173
 282036
 292488
 282097
 277289
 293719
 275172
 287567
 286954
 278396
 276322
 276463
 277230
 287567
 286954
 278396
 276322
 276463
 276218
 274903
 275235
 276559
 287194
 274850
 276967
 276674
 278332
 284385
 287886
 278493
 285434
 295409
 287567
 286954
 278396
 276322
 276463
 277244
 310546
 320442
 319277
 285434
 295409
 287567
 286954
 278396
 276322
 276463
 277094
 274206
 277008
 273704
 285763
 276066
 274764
 276372
 282327
 288515
 276468
 278372
 287492
 289421
 277970
 276587
 280293
 278308
 276322
 276463
 276706
 276583
 274206
 277008
 274188
 289152
 303590
 293096
 287041
 278263
 274207
 277126
 285763
 276069
 288601
 276468
 278372
 287492
 289421
 278263
 274207
 277126
 285763
 276072
 278359
 276322
 276463
 276642
 282732
 286698
 274204
 277050
 282036
 281026
 275042
 276322
 276463
 277050
 276587
 274764
 276372
 282340
 283335
 285948
 286717
 276322
 276463
 276762
 278924
 275572
 276769
 298050
 286121
 275102
 295540
 296994
 276322
 276463
 277132
 287608
 278977
 276071
 276322
 276463
 277024
 309004
 287552
 275543
 288601
 276468
 278372
 287492
 289421
 274643
 292332
 291031
 274725
 285763
 276071
 275879
 275030
 277470
 285819
 303343
 320427
 314359
 311817
 288042
 278306
 286954
 278362
 277453
 280293
 275681
 277206
 275175
 296054
 276129
 280293
 275427
 281741
 276603
 277073
 284269
 278306
 286954
 278382
 296813
 273704
 285763
 275182
 274467
 274284
 286833
 280293
 273058
 281241
 288092
 296999
 295434
 276391
 286193
 289865
 281241
 288092
 296994
 293601
 290569
 274790
 276558
 305744
 319851
 289453
 278350
 295245
 278306
 286954
 278385
 296999
 288549
 287567
 286954
 278351
 288529
 281246
 279082
 311820
 288179
 275034
 295067
 274260
 276978
 278347
 278308
 276322
 276463
 276919
 275036
 274207
 277126
 285763
 275903
 279654
 276994
 276322
 276463
 276218
 274764
 276372
 282342
 293739
 320427
 314359
 311828
 288549
 287567
 286954
 278396
 276322
 276463
 276218
 274764
 276372
 282342
 276322
 276463
 276322
 277763
 283335
 285948
 286701
 279654
 276993
 279170
 298050
 285864
 276625
 275413
 286850
 276322
 276463
 277132
 287608
 272859
 278308
 276322
 276463
 276762
 278924
 275572
 276769
 298050
 286010
 298592
 275091
 277919
 289834
 281026
 275042
 276322
 276463
 277100
 276322
 276463
 277207
 274764
 276372
 282340
 283335
 285948
 286717
 276322
 276463
 276318
 276993
 279170
 298050
 285864
 276625
 275385
 276322
 276463
 276293
 278481
 276496
 288601
 276468
 278372
 287492
 289421
 279333
 318450
 279654
 276978
 278501
 275464
 294742
 274878
 287492
 289421
 278408
 286491
 287567
 286954
 278396
 276322
 276463
 276936
 288055
 286709
 278214
 288581
 276071
 276322
 276463
 276293
 278478
 278924
 275572
 276769
 298050
 285760
 276468
 278372
 287492
 289421
 273725
 278715
 288937
 320414
 310047
 288055
 286709
 278214
 288581
 276071
 276322
 276463
 276282
 275636
 277763
 283335
 285948
 286717
 276322
 276463
 277024
 309004
 287560
 275929
 277480
 294752
 275391
 295769
 276682
 296383
 288055
 286709