 288529
 280388
 277447
 278288
 281241
 285684
 296595
 274164
 278058
 285012
 274796
 275169
 275543
 292159
 295468
 293612
 276156
 280821
 276226
 279323
 284344
 286729
 285634
 279654
 276994
 279207
 277919
 290309
 284344
 286572
 274164
 278058
 282643
 281094
 278376
 276975
 278367
 279332
 275869
 274468
 274287
 279165
 296149
 295725
 294752
 275335
 275260
 272664
 278481
 296999
 287922
 272134
 274764
 276372
 282340
 276520
 275362
 286193
 294412
 276942
 276610
 276461
 275634
 277846
 287325
 286709
 278362
 294737
 274599
 275569
 276561
 276610
 276491
 273027
 274846
 276610
 276559
 288075
 275918
 276610
 276524
 286426
 281752
 277032
 287325
 286709
 278355
 295540
 296208
 279451
 275561
 276174
 278357
 279323
 284344
 286808
 276218
 276610
 276485
 284344
 285855
 276369
 277815
 277947
 282042
 300696
 297772
 286171
 278994
 288055
 286037
 285358
 285708
 285358
 285705
 281461
 276902
 301444
 295060
 273648
 285358
 285708
 285708 285358
 285705
 281461
 276902
 281461
 276902
 285358
 285716
 279113
 295340
 287325
 286709
 278304
 273027
 274178
 275560
 276169
 293612
 276156
 281352
 288881
 300801
 288529
 280466
 281241
 285684
 296595
 274164
 278058
 287755
 285527
 277153
 294970
 288529
 281148
 287325
 286709
 278333
 275946
 278469
 284344
 285954
 281241
 285669
 278533
 285527
 277153
 294844
 278348
 278368
 296149
 295622
 301283
 286015
 284344
 286269
 278225
 272346
 276260
 286841
 302161
 285527
 277153
 295211
 287325
 286709
 278408
 298149
 303341
 285527
 277153
 288601
 276468
 278340
 276226
 279323
 284344
 285816
 274459
 274224
 275126
 289068
 292470
 298094
 276320
 277722
 281241
 285684
 296595
 274164
 278058
 288319
 286991
 274164
 278058
 283106
 284344
 286747
 274452
 274188
 276260
 286841
 302378
 296149
 295519
 275453
 277273
 288529
 280413
 278625
 278408
 281241
 285670
 274456
 274206
 281050
 286752
 286954
 278379
 274164
 278058
 287395
 287537
 274764
 276372
 282335
 275219
 274903
 276215
 276208
 301276
 286730
 285763
 275382
 284344
 286792
 310154
 303341
 285527
 277153
 295405
 303214
 284004
 276369
 277889
 278352
 288529
 281242
 285607
 297433
 272321
 276075
 285556
 295459
 276169
 293612
 276528
 281955
 278400
 286843
 297236
 296337
 285787
 273027
 274353
 284344
 286395
 288529
 280719
 277791
 287922
 273502
 284344
 286736
 277780
 274222
 274204
 276369
 287606
 276401
 272769
 279214
 289666
 278304
 276226
 278312
 278344
 285722
 287612
 286844
 300674
 296694
 278625
 279082
 311819
 288110
 288529
 280579
 277240
 291348
 276610
 276485
 284344
 286716
 292317
 281589
 297911
 295728
 289666
 278304
 276226
 278417
 276213
 303326
 311826
 288418
 275869
 274452
 274193
 276369
 278340
 274164
 278058
 282569
 280586
 283507
 287157
 295890
 296595
 274164
 278058
 288304
 279516
 276020
 275971
 276556
 274696
 284344
 286842
 297440
 289453
 278350
 278718
 277345
 276542
 290696
 294472
 278481
 296893
 276124
 295147
 274164
 278058
 284864
 278294
 275634
 278718
 277345
 276513
 273125
 274903
 275728
 299933
 285628
 277002
 276519
 286792
 298654
 274207
 277132
 276995
 279304
 310504
 305223
 287896
 284256
 280872
 285516
 288357
 298228
 277002
 276460
 275152
 273014
 280926
 285886
 278342
 277289
 277239
 279394
 275175
 296058
 298458
 274164
 278058
 287768
 286063
 274818
 273490
 284256
 280779
 278716
 276290
 295140
 276603
 293739
 320375
 296708
 278705
 272179
 275077
 278570
 293615
 277675
 305820
 292081
 305889
 292570
 286193
 291442
 281354
 288883
 297586
 296708
 278715
 275554
 275939
 275534
 274952
 276124
 295147
 274164
 278058
 288133
 287229
 276513
 273210
 282299
 294842
 278723
 278313
 276615
 295208
 285477
 274703
 275932
 278715
 275554
 275270
 272179
 275083
 278600
 295159
 295417
 298061
 300726
 299280
 296708
 278715
 275554
 275057
 277951
 275627
 275939
 274164
 278058
 284694
 295458
 273485
 276124
 294902
 275099
 278284
 275260
 274626
 280873
 285526
 287251
 276520
 273485
 276124
 295226
 275246
 278723
 278530
 277882
 274861
 275067
 285434
 295147
 274164
 278058
 288124
 286840
 286293
 297891
 274164
 278058
 283106
 284344
 286811
 279654
 276986
 278821
 275079
 286291
 294749
 275221
 288055
 286709
 278171
 286538
 277633
 276934
 288055
 286121
 278353
 295424
 303345
 288055
 286811
 284344
 285850
 276124
 275618
 272106
 274578
 275061
 283825
 289373
 294420
 275946
 279135
 286193
 293033
 276535
 290352
 272313
 276027
 278651
 288055
 286015
 284344
 286654
 275826
 272467
 277104
 275946
 272313
 276027
 278651
 288055
 286367
 277919
 295115
 276313
 275382
 284344
 286572
 274166
 278782
 277270
 292753
 277919
 293982
 288055
 286269
 278287
 275382
 284344
 285945
 280781
 279026
 274164
 278058
 287912
 276313
 275382
 284344
 286572
 274166
 278368
 275996
 297163
 275922
 277175
 288088
 297884
 278249
 273502
 284344
 286572
 274164
 278058
 288419
 276320
 278612
 308089
 300634
 294726
 293982
 288055
 286269
 278306
 276332
 296305
 284344
 285873
 277242
 276909
 275009
 277338
 294386
 296084
 294726
 293982
 288055
 286015
 284344
 285918
 279451
 275564
 276322
 278466
 284172
 291809
 296595
 274164
 278058
 285913
 279313
 276126
 279313
 275526
 274459
 274224
 272248
 275562
 276220
 277002
 276534
 290318
 301222
 306771
 287733
 276673
 297107
 278400
 285759
 277605
 275560
 276169
 293612
 275924
 277270
 274826
 272089
 274224
 272255
 275622
 279188
 278744
 274778
 276477
 279170
 298050
 286017
 301222
 306771
 287733
 276673
 297107
 278270
 274459
 274224
 272248
 275562
 276282
 276260
 287054
 278360
 289491
 274459
 274224
 273252
 282597
 296658
 295845
 295409
 282597
 296658
 295845
 295409
 280586
 283507
 287157
 295147
 277948
 275531
 274733
 288529
 280352
 275635
 278148
 285396
 274497
 274459
 274224
 278024
 279279
 297647
 282086
 277192
 274903
 275676
 276122
 277002
 276468
 278725
 278060
 279076
 296317
 296599
 276237
 283818
 289328
 294292
 295416
 285838
 275578
 276465
 277002
 276595
 293347
 303324
 274459
 274224
 275898
 277497
 278333
 278225
 272346
 276260
 286841
 296314
 275946
 278723
 278277
 274813
 273188
 275946
 278715
 275946
 278812
 275774
 275212
 275946
 279294
 300274
 277002
 276524
 285479
 274796
 276587
 286993
 274459
 274224
 274826
 278941
 303326
 279839
 278281
 275084
 295416
 301222
 306771
 287912
 287823
 288529
 280380
 277002
 276517
 289490
 295416
 285479
 274789
 276548
 280818
 274459
 274224
 277791
 287629
 279330
 275999
 285837
 272859
 275560
 276216
 286071
 278558
 276369
 278528
 289681
 278994
 287492
 289421
 279236
 278827
 298050
 286073
 279313
 276282
 274164
 278058
 288097
 285434
 295273
 274206
 276558
 275207
 272257
 275636
 278703
 289666
 278304
 276226
 278385
 296999
 288122
 276604
 276213
 303326
 311810
 287762
 285830
 275273
 278980
 281241
 285684
 296595
 274164
 278058
 288097
 285434
 275183
 274666
 277262
 276756
 301234
 285434
 295306
 286408
 276260
 286841
 279799
 278000
 278037
 273502
 284344
 286729
 285722
 287821
 285859
 303617
 299270
 296648
 278284
 275260
 276290
 294844
 278235
 272852
 277666
 278533
 275905
 276290
 294425
 276260
 286841
 275632
 277132
 276983
 278691
 281312
 275632
 277168
 287819
 295549
 280891
 284344
 286291
 285840
 275725
 284344
 286312
 276596
 293354
 290548
 287853
 273502
 284344
 285918
 279451
 275571
 276689
 287325
 286709
 278325
 293619
 278498
 279451
 275555
 274459
 274224
 275126
 289068
 274459
 274224
 275113
 284385
 287879
 276290
 294844
 278466
 284172
 291802
 294264
 281382
 277269
 292719
 300098
 285627
 277144
 276230
 297586
 296650
 277497
 278285
 275547
 275543