 275175
 279654
 276985
 278745
 279279
 298023
 276463
 276705
 276132
 281241
 285671
 280151
 297281
 298487
 298023
 276463
 277226
 303492
 297225
 295700
 288288
 287010
 278049
 278009
 278497
 276614
 276114
 278332
 294425
 287265
 278302
 276156
 280906
 285747
 287979
 285777
 303043
 299833
 283792
 276226
 278277
 277242
 276916
 275363
 277394
 277042
 305452
 295455
 293072
 286883
 277175
 286291
 285913
 279279
 298023
 276463
 276705
 276132
 281241
 285671
 280151
 297281
 298487
 297390
 287010
 278053
 296342
 288337
 295746
 290562
 288529
 280362
 276260
 286841
 300635
 294734
 274526
 274778
 275047
 273033
 277206
 277087
 289421
 278273
 276226
 278285
 280151
 297281
 298487
 297192
 277242
 276909
 275009
 277210
 280826
 276948
 277042
 305420
 293982
 288055
 286113
 289152
 297735
 285913
 279279
 298023
 276463
 277238
 298023
 276463
 276705
 276244
 287249
 277477
 288529
 280906
 285747
 287968
 285856
 276552
 298023
 276463
 276211
 274467
 274288
 286632
 275414
 285859
 303617
 298242
 289453
 278340
 276226
 278404
 286257
 272795
 275175
 296062
 306045
 287122
 278847
 277477
 288529
 280906
 285747
 287979
 285777
 299614
 299051
 278306
 286954
 278385
 291277
 274313
 273202
 277270
 272345
 275996
 297616
 298161
 298023
 276463
 276791
 288529
 280906
 285747
 287979
 285777
 299614
 299051
 278306
 286954
 278285
 280151
 297281
 298487
 298023
 276463
 276517
 278340
 276226
 278297
 284004
 276241
 275996
 297170
 276241
 275996
 297616
 298161
 298023
 276463
 276569
 274189
 289147
 289328
 294292
 295425
 275200
 291277
 274312
 273195
 276569
 299190
 279279
 298023
 276463
 276247
 276241
 275996
 297616
 298161
 298023
 276463
 276569
 274189
 289147
 289482
 288529
 280753
 284676
 274840
 274197
 276675
 274312
 273195
 276478
 282181
 288662
 277605
 279246
 277924
 298023
 276463
 277238
 298023
 276463
 276247
 276241
 275996
 297616
 298161
 298023
 276463
 276705
 276132
 281241
 285671
 280134
 280151
 297281
 298487
 298023
 276463
 276327
 280134
 280147
 296813
 279260
 295417
 298023
 276463
 276462
 275879
 275053
 278390
 274313
 273210
 282299
 295159
 295417
 298023
 276463
 276510
 276411
 282197
 277942
 280134
 280151
 297281
 298487
 298023
 276463
 276961
 276573
 285215
 278642
 275627
 275250
 277815
 279279
 298023
 276463
 277238
 297440
 289453
 278355
 295546
 304208
 285683
 296648
 275728
 277270
 276886
 283972
 298077
 294746
 275180
 296086
 298023
 276463
 277238
 297898
 275298
 280151
 297281
 298487
 298023
 276463
 276758
 278875
 295811
 293685
 298161
 297220
 278625
 278714
 296342
 287245
 277367
 275970
 296342
 291209
 303553
 301756
 297250
 280134
 280150
 292773
 284786
 279293
 294990
 294823
 289421
 278393
 285980
 282548
 296940
 291277
 274316
 273237
 282488
 277165
 287601
 276121
 277347
 277312
 294856
 289523
 278843
 286834
 282544
 295167
 290610
 293739
 320427
 313942
 291277
 274310
 273201
 282237
 295067
 275019
 286193
 294412
 277165
 287601
 276114
 274560
 274941
 276198
 276322
 286698
 276281
 276686
 288124
 286836
 284339
 276173
 275187
 275959
 290610
 293739
 320388
 300864
 293121
 287336
 274309
 273187
 282130
 282732
 286290
 285479
 274792
 276572
 291277
 274308
 273167
 278348
 295180
 287220
 276083
 297899
 291454
 275559
 276135
 297560
 278528
 278304
 276260
 286841
 302308
 292756
 284662
 278434
 282548
 286071
 278567
 292933
 278329
 277347
 277312
 294865
 295521
 279531
 276127
 294371
 279165
 290610
 290058
 278129
 277270
 277392
 286709
 278280
 277577
 274217
 274777
 278333
 276565
 276583
 276305
 272673
 278533
 281258
 288209
 291220
 279377
 275049
 289238
 286991
 277913
 273854
 276547
 290926
 276814
 274538
 291604
 293412
 293821
 285914
 279272
 274318
 282545
 296022
 279320
 274649
 276902
 308152
 296681
 278518
 286716
 285215
 278642
 276128
 274217
 275260
 272106
 274562
 274949
 278533
 281258
 288209
 292949
 287933
 277377
 278404
 275622
 279297
 307307
 285607
 294763
 275881
 275035
 273835
 275627
 276197
 303214
 276596
 293327
 275763
 282053
 276565
 276573
 285215
 278658
 285914
 279254
 274188
 276128
 274217
 275260
 276226
 276468
 278533
 281258
 288209
 292949
 287943
 277926
 301496
 278625
 279184
 285607
 294425
 276253
 296285
 275763
 281963
 280586
 283507
 287157
 294468
 278292
 275613
 282732
 286611
 277952
 275681
 277300
 275912
 276658
 287220
 276083
 297899
 291534
 276117
 276519
 282732
 286415
 294903
 282096
 277270
 292766
 290610
 290058
 278333
 276519
 289621
 287220
 276083
 297899
 291466
 275643
 280293
 273168
 282013
 275643
 280293
 273168
 282013
 276026
 277998
 294861
 295833
 294747
 275145
 275302
 276346
 287325
 286709
 278288
 281152
 277910
 286841
 278286
 275300
 280293
 273168
 282013
 275691
 282597
 296658
 295845
 295416
 275379
 274570
 275021
 275995
 278177
 275879
 275015
 278129
 301296
 278921
 277087
 289421
 278417
 278182
 277869
 288521
 278285
 280293
 279060
 277087
 289421
 278305
 275879
 275064
 278478
 278413
 277115
 278399
 275620
 277087
 289421
 278340
 276129
 280293
 272902
 280146
 296583
 295117
 276550
 300257
 276241
 275996
 297608
 276229
 303435
 311815
 287963
 289421
 278288
 281241
 288092
 297002
 295823
 277465
 277461
 273803
 280293
 275560
 276191
 301219
 287990
 283398
 286384
 279850
 278367
 279277
 279850
 278364
 277130
 297492
 292067
 279853
 278368
 276213
 303326
 311810
 287641
 279834
 278235
 272859
 272925
 276988
 278924
 276977
 277337
 274245
 280293
 274232
 278345
 289545
 295150
 294965
 275995
 278518
 276457
 274578
 275061
 274158
 272120
 274658
 275634
 277864
 288258
 305909
 292067
 279833
 278236
 272925
 273173
 282036
 280293
 274232
 278342
 280293
 273173
 282036
 295070
 274209
 277289
 272925
 277791
 287648
 280293
 272925
 276988
 278928
 276583
 291800
 276472
 280293
 273041
 278749
 279468
 274196
 272401
 276633
 278345
 289543
 276128
 275775
 275960
 301555
 280466
 281270
 287122
 287996
 283398
 286384
 281125
 279048
 273141
 280293
 276226
 276475
 281125
 279106
 276129
 280293
 274826
 273900
 287122
 287733
 301307
 305908
 292133
 280293
 273900
 287122
 287444
 287122
 287836
 274943
 286717
 278178
 277160
 278333
 277661
 276625
 275419
 276492
 275859
 275076
 276492
 275869
 275071
 277240
 288306
 287122
 287978
 276267
 276488
 285763
 276067
 280136
 285763
 276067
 280143
 276520
 274252
 276019
 276188
 278306
 286954
 278285
 280293
 273704
 285763
 276067
 280144
 295143
 294622
 285913
 279277
 281055
 276468
 278644
 285603
 285417
 276329
 280293
 277846
 287325
 286709
 278332
 289421
 278333
 276456
 286442
 279846
 278323
 277168
 287814
 279848
 278337
 277846
 287325
 286709
 278270
 275184
 275127
 289421
 278344
 277223
 285729
 297608
 285763
 276067
 280144
 296098
 290024
 295724
 289421
 278332
 289421
 278285
 280293
 276143
 287970
 287976
 296320
 298050
 285864
 278521
 276507
 289015
 292100
 288013
 298164
 274489
 291259
 292724
 291259
 292754
 295169
 293249
 288105
 276479
 282273
 286709
 278658
 278009
 278501
 286993
 276968
 277967
 276443
 287010
 298029
 278751
 294970
 288529
 280369
 276520
 278906
 275762
 288529
 280369
 276520
 278906
 275940
 286709
 278362
 277456
 278102
 278200
 274218
 277622
 288075
 275946
 274218
 277622
 288075
 275946
 274206
 277009
 279447
 286628
 274218
 274197
 276681
 306609
 285704
 276535
 290365
 290637
 303455
 300414
 284004
 303411
 285922
 279654
 276983
 278702
 289421
 278347
 295117
 287363
 278340
 276756
 301265
 275629
 274207
 277115
 272845
 278396
 274222
 277922
 300429
 284616
 278106
 272845
 278400
 287923
 276979
 278485
 285819
 279799
 278008
 278484
 298050
 286330
 282725
 281665
 272852
 278008
 278543
 272510
 276369
 277721
 275155
 276022
 276289
 274213
 277443
 301291
 310154
 302406
 297471
 274213
 277443
 301291
 310154
 302406
 297471
 274222
 277835
 278263
 274210
 277203
 278343
 281162
 275155
 276156
 278348
 295169
 295837
 285723
 278396
 274222
 277892
 277112
 297471
 274207
 277137
 278291
 275543
 292214
 274214
 276022
 276278
 277791
 288255
 287292
 279540
 276181
 273059
 281241
 285671
 280293
 279279
 298023